…
# Data Preperation

To prepare the data for the Apriori Algorithm, we need to prepare the
data into a One-Hot Encoded Dataframe where each row is a unique
“playlist” identifier and each column is a unique “song” identifier.

Here are the playlists in descending frequency from the dataset.

``` r
data %>% group_by(playlistname) %>% summarise(count = n()) %>%  arrange(desc(count))
```

    ## # A tibble: 18,262 × 2
    ##    playlistname          count
    ##    <chr>                 <int>
    ##  1 Starred               94581
    ##  2 Liked from Radio      16904
    ##  3 CHILL                  8477
    ##  4 Everything at once     7892
    ##  5 Spotify Library        7645
    ##  6 Strane                 6825
    ##  7 Rock                   6665
    ##  8 OSTs                   5010
    ##  9 Favoritas de la radio  4692
    ## 10 Rich's iPhone          4603
    ## # ℹ 18,252 more rows

Here are the song names in descending frequency from the dataset.

``` r
data %>% group_by(trackname) %>% summarise(count = n()) %>%  arrange(desc(count))
```

    ## # A tibble: 386,270 × 2
    ##    trackname     count
    ##    <chr>         <int>
    ##  1 Intro           557
    ##  2 Home            468
    ##  3 Closer          324
    ##  4 Hold On         309
    ##  5 Radioactive     305
    ##  6 Runaway         291
    ##  7 Wake Me Up      289
    ##  8 Alive           267
    ##  9 Stay            267
    ## 10 Midnight City   263
    ## # ℹ 386,260 more rows
…
